{
    "prepare_queue": {
        "installed": [],
        "uninstalled": []
    },
    "config_munge": {
        "files": {
            "res/xml/config.xml": {
                "parents": {
                    "/*": [
                        {
                            "xml": "<feature name=\"Device\"><param name=\"android-package\" value=\"org.apache.cordova.device.Device\" /></feature>",
                            "count": 1
                        },
                        {
                            "xml": "<feature name=\"Notification\"><param name=\"android-package\" value=\"org.apache.cordova.dialogs.Notification\" /></feature>",
                            "count": 1
                        }
                    ]
                }
            }
        }
    },
    "installed_plugins": {
        "org.apache.cordova.device": {
            "PACKAGE_NAME": "org.alixen.mioga2.example_app"
        },
        "org.apache.cordova.console": {
            "PACKAGE_NAME": "org.alixen.mioga2.example_app"
        },
        "org.apache.cordova.dialogs": {
            "PACKAGE_NAME": "org.alixen.mioga2.example_app"
        }
    },
    "dependent_plugins": {}
}